Items,Price,Amount ,Expiry Date,Category
Bread,$2.99 ,5,9/5/2018,carb
Cheese,$1.50 ,4,9/10/2018,dairy
Chocolate,$5.00 ,2,10/20/2018,dessert
Apples,$1.00 ,10,9/8/2018,fruit
Carrots,$0.50 ,1,9/14/2018,vegetable
Pizza,$20.00 ,1,8/31/2018,carb
